Traceback (most recent call last):
  File "run_num_opt_2d.py", line 45, in <module>
    simulation.init_patient()
  File "/work3/s164180/Master-thesis/main/simulations/DiabetesModels.py", line 47, in init_patient
    self.patient = Patient(env = self.__dict__)
  File "/work3/s164180/Master-thesis/main/simulations/DiabetesModels.py", line 206, in __init__
    self.set_u_opt()
  File "/work3/s164180/Master-thesis/main/simulations/DiabetesModels.py", line 237, in set_u_opt
    dat = np.load(f'{path_to_u_opt}data/patient{self.patientNr}.npz')
  File "/zhome/63/c/118459/anaconda3/lib/python3.8/site-packages/numpy/lib/npyio.py", line 417, in load
    fid = stack.enter_context(open(os_fspath(file), "rb"))
FileNotFoundError: [Errno 2] No such file or directory: 'calculate_u_opt_CGP/data/patient1001.npz'
