no change     /zhome/63/c/118459/anaconda3/condabin/conda
no change     /zhome/63/c/118459/anaconda3/bin/conda
no change     /zhome/63/c/118459/anaconda3/bin/conda-env
no change     /zhome/63/c/118459/anaconda3/bin/activate
no change     /zhome/63/c/118459/anaconda3/bin/deactivate
no change     /zhome/63/c/118459/anaconda3/etc/profile.d/conda.sh
no change     /zhome/63/c/118459/anaconda3/etc/fish/conf.d/conda.fish
no change     /zhome/63/c/118459/anaconda3/shell/condabin/Conda.psm1
no change     /zhome/63/c/118459/anaconda3/shell/condabin/conda-hook.ps1
no change     /zhome/63/c/118459/anaconda3/lib/python3.8/site-packages/xontrib/conda.xsh
no change     /zhome/63/c/118459/anaconda3/etc/profile.d/conda.csh
no change     /zhome/63/c/118459/.bashrc
No action taken.
debug_tuple(env={'path': 'calculate_u_opt_PPP/', 'maxPatient': 1000, 'patientNr': 22, 'root': '', 'nMeals': 200, 'ndim': 2, 'loss_fun': 'PPP', 'jupyter': False, 'hypoglycemia': 4, 'target': 6}, path='calculate_u_opt_PPP/', maxPatient=1000, patientNr=22, root='', nMeals=200, ndim=2, loss_fun='PPP', jupyter=False, hypoglycemia=4, target=6)
