Traceback (most recent call last):
  File "run_rls_2d.py", line 10, in <module>
    environment = read_env(ndim=2)
  File "/work3/s164180/Master-thesis/main/simulations/utils.py", line 42, in read_env
    patientNr = update_lastPatient(path, maxPatient)
  File "/work3/s164180/Master-thesis/main/simulations/utils.py", line 63, in update_lastPatient
    patientNr = read_lastPatient(path) + 1
  File "/work3/s164180/Master-thesis/main/simulations/utils.py", line 71, in read_lastPatient
    return int(lastPatient)
ValueError: invalid literal for int() with base 10: ''
