no change     /zhome/63/c/118459/anaconda3/condabin/conda
no change     /zhome/63/c/118459/anaconda3/bin/conda
no change     /zhome/63/c/118459/anaconda3/bin/conda-env
no change     /zhome/63/c/118459/anaconda3/bin/activate
no change     /zhome/63/c/118459/anaconda3/bin/deactivate
no change     /zhome/63/c/118459/anaconda3/etc/profile.d/conda.sh
no change     /zhome/63/c/118459/anaconda3/etc/fish/conf.d/conda.fish
no change     /zhome/63/c/118459/anaconda3/shell/condabin/Conda.psm1
no change     /zhome/63/c/118459/anaconda3/shell/condabin/conda-hook.ps1
no change     /zhome/63/c/118459/anaconda3/lib/python3.8/site-packages/xontrib/conda.xsh
no change     /zhome/63/c/118459/anaconda3/etc/profile.d/conda.csh
no change     /zhome/63/c/118459/.bashrc
No action taken.
