Simulating for PatientNr: 154:   0%|          | 0/200 [00:00<?, ?it/s]
Calculating u_opt for patient 154:   0%|          | 0/1 [00:00<?, ?it/s][A
Calculating u_opt for patient 154: 100%|██████████| 1/1 [00:02<00:00,  2.19s/it][ACalculating u_opt for patient 154: 100%|██████████| 1/1 [00:02<00:00,  2.19s/it]
Simulating for PatientNr: 154:   0%|          | 1/200 [00:02<07:42,  2.32s/it]
Calculating u_opt for patient 154:   0%|          | 0/1 [00:00<?, ?it/s][A
Calculating u_opt for patient 154: 100%|██████████| 1/1 [00:03<00:00,  3.24s/it][ACalculating u_opt for patient 154: 100%|██████████| 1/1 [00:03<00:00,  3.24s/it]
Simulating for PatientNr: 154:   1%|          | 2/200 [00:05<09:42,  2.94s/it]
Calculating u_opt for patient 154:   0%|          | 0/1 [00:00<?, ?it/s][A
Calculating u_opt for patient 154: 100%|██████████| 1/1 [00:10<00:00, 10.73s/it][ACalculating u_opt for patient 154: 100%|██████████| 1/1 [00:10<00:00, 10.73s/it]
Simulating for PatientNr: 154:   2%|▏         | 3/200 [00:16<21:32,  6.56s/it]
Calculating u_opt for patient 154:   0%|          | 0/1 [00:00<?, ?it/s][A
Calculating u_opt for patient 154: 100%|██████████| 1/1 [00:07<00:00,  7.56s/it][ACalculating u_opt for patient 154: 100%|██████████| 1/1 [00:07<00:00,  7.56s/it]
Simulating for PatientNr: 154:   2%|▏         | 4/200 [00:24<22:53,  7.01s/it]
Calculating u_opt for patient 154:   0%|          | 0/1 [00:00<?, ?it/s][A
Calculating u_opt for patient 154: 100%|██████████| 1/1 [00:06<00:00,  6.34s/it][ACalculating u_opt for patient 154: 100%|██████████| 1/1 [00:06<00:00,  6.34s/it]
Simulating for PatientNr: 154:   2%|▎         | 5/200 [00:30<22:09,  6.82s/it]
Calculating u_opt for patient 154:   0%|          | 0/1 [00:00<?, ?it/s][A
Calculating u_opt for patient 154: 100%|██████████| 1/1 [00:07<00:00,  7.55s/it][ACalculating u_opt for patient 154: 100%|██████████| 1/1 [00:07<00:00,  7.55s/it]
Simulating for PatientNr: 154:   3%|▎         | 6/200 [00:38<22:59,  7.11s/it]
Calculating u_opt for patient 154:   0%|          | 0/1 [00:00<?, ?it/s][A
Calculating u_opt for patient 154: 100%|██████████| 1/1 [00:04<00:00,  4.10s/it][ACalculating u_opt for patient 154: 100%|██████████| 1/1 [00:04<00:00,  4.10s/it]
Simulating for PatientNr: 154:   4%|▎         | 7/200 [00:42<19:51,  6.17s/it]
Calculating u_opt for patient 154:   0%|          | 0/1 [00:00<?, ?it/s][A
Calculating u_opt for patient 154: 100%|██████████| 1/1 [00:06<00:00,  6.54s/it][ACalculating u_opt for patient 154: 100%|██████████| 1/1 [00:06<00:00,  6.54s/it]
Simulating for PatientNr: 154:   4%|▍         | 8/200 [00:49<20:15,  6.33s/it]
Calculating u_opt for patient 154:   0%|          | 0/1 [00:00<?, ?it/s][A
Calculating u_opt for patient 154: 100%|██████████| 1/1 [00:03<00:00,  3.59s/it][ACalculating u_opt for patient 154: 100%|██████████| 1/1 [00:03<00:00,  3.59s/it]
Simulating for PatientNr: 154:   4%|▍         | 9/200 [00:53<17:35,  5.52s/it]
Calculating u_opt for patient 154:   0%|          | 0/1 [00:00<?, ?it/s][A
Calculating u_opt for patient 154: 100%|██████████| 1/1 [00:09<00:00,  9.22s/it][ACalculating u_opt for patient 154: 100%|██████████| 1/1 [00:09<00:00,  9.22s/it]
Simulating for PatientNr: 154:   5%|▌         | 10/200 [01:02<21:14,  6.71s/it]
Calculating u_opt for patient 154:   0%|          | 0/1 [00:00<?, ?it/s][A
Calculating u_opt for patient 154: 100%|██████████| 1/1 [00:03<00:00,  3.83s/it][ACalculating u_opt for patient 154: 100%|██████████| 1/1 [00:03<00:00,  3.83s/it]
Simulating for PatientNr: 154:   6%|▌         | 11/200 [01:06<18:29,  5.87s/it]
Calculating u_opt for patient 154:   0%|          | 0/1 [00:00<?, ?it/s][A
Calculating u_opt for patient 154: 100%|██████████| 1/1 [00:12<00:00, 12.49s/it][ACalculating u_opt for patient 154: 100%|██████████| 1/1 [00:12<00:00, 12.49s/it]
Simulating for PatientNr: 154:   6%|▌         | 12/200 [01:19<24:49,  7.92s/it]
Calculating u_opt for patient 154:   0%|          | 0/1 [00:00<?, ?it/s][A
Calculating u_opt for patient 154: 100%|██████████| 1/1 [00:08<00:00,  8.61s/it][ACalculating u_opt for patient 154: 100%|██████████| 1/1 [00:08<00:00,  8.61s/it]
Simulating for PatientNr: 154:   6%|▋         | 13/200 [01:27<25:27,  8.17s/it]
Calculating u_opt for patient 154:   0%|          | 0/1 [00:00<?, ?it/s][A
Calculating u_opt for patient 154: 100%|██████████| 1/1 [00:07<00:00,  7.36s/it][ACalculating u_opt for patient 154: 100%|██████████| 1/1 [00:07<00:00,  7.36s/it]
Simulating for PatientNr: 154:   7%|▋         | 14/200 [01:35<24:42,  7.97s/it]
Calculating u_opt for patient 154:   0%|          | 0/1 [00:00<?, ?it/s][A
Calculating u_opt for patient 154: 100%|██████████| 1/1 [00:04<00:00,  4.86s/it][ACalculating u_opt for patient 154: 100%|██████████| 1/1 [00:04<00:00,  4.86s/it]
Simulating for PatientNr: 154:   8%|▊         | 15/200 [01:40<21:48,  7.07s/it]
Calculating u_opt for patient 154:   0%|          | 0/1 [00:00<?, ?it/s][A
Calculating u_opt for patient 154: 100%|██████████| 1/1 [00:06<00:00,  6.84s/it][ACalculating u_opt for patient 154: 100%|██████████| 1/1 [00:06<00:00,  6.85s/it]
Simulating for PatientNr: 154:   8%|▊         | 16/200 [01:47<21:36,  7.05s/it]
Calculating u_opt for patient 154:   0%|          | 0/1 [00:00<?, ?it/s][A
Calculating u_opt for patient 154: 100%|██████████| 1/1 [00:06<00:00,  6.00s/it][ACalculating u_opt for patient 154: 100%|██████████| 1/1 [00:06<00:00,  6.00s/it]
Simulating for PatientNr: 154:   8%|▊         | 17/200 [01:53<20:39,  6.77s/it]
Calculating u_opt for patient 154:   0%|          | 0/1 [00:00<?, ?it/s][A
Calculating u_opt for patient 154: 100%|██████████| 1/1 [00:12<00:00, 12.62s/it][ACalculating u_opt for patient 154: 100%|██████████| 1/1 [00:12<00:00, 12.62s/it]
Simulating for PatientNr: 154:   9%|▉         | 18/200 [02:06<25:59,  8.57s/it]
Calculating u_opt for patient 154:   0%|          | 0/1 [00:00<?, ?it/s][A
Calculating u_opt for patient 154: 100%|██████████| 1/1 [00:05<00:00,  5.43s/it][ACalculating u_opt for patient 154: 100%|██████████| 1/1 [00:05<00:00,  5.43s/it]
Simulating for PatientNr: 154:  10%|▉         | 19/200 [02:11<23:07,  7.67s/it]
Calculating u_opt for patient 154:   0%|          | 0/1 [00:00<?, ?it/s][A
Calculating u_opt for patient 154: 100%|██████████| 1/1 [00:08<00:00,  8.58s/it][ACalculating u_opt for patient 154: 100%|██████████| 1/1 [00:08<00:00,  8.58s/it]
Simulating for PatientNr: 154:  10%|█         | 20/200 [02:20<23:56,  7.98s/it]
Calculating u_opt for patient 154:   0%|          | 0/1 [00:00<?, ?it/s][A
Calculating u_opt for patient 154: 100%|██████████| 1/1 [00:05<00:00,  5.97s/it][ACalculating u_opt for patient 154: 100%|██████████| 1/1 [00:05<00:00,  5.97s/it]
Simulating for PatientNr: 154:  10%|█         | 21/200 [02:26<22:07,  7.42s/it]
Calculating u_opt for patient 154:   0%|          | 0/1 [00:00<?, ?it/s][A
Calculating u_opt for patient 154: 100%|██████████| 1/1 [00:06<00:00,  6.25s/it][ACalculating u_opt for patient 154: 100%|██████████| 1/1 [00:06<00:00,  6.25s/it]
Simulating for PatientNr: 154:  11%|█         | 22/200 [02:32<21:05,  7.11s/it]
Calculating u_opt for patient 154:   0%|          | 0/1 [00:00<?, ?it/s][A
Calculating u_opt for patient 154: 100%|██████████| 1/1 [00:07<00:00,  7.89s/it][ACalculating u_opt for patient 154: 100%|██████████| 1/1 [00:07<00:00,  7.89s/it]
Simulating for PatientNr: 154:  12%|█▏        | 23/200 [02:40<21:46,  7.38s/it]
Calculating u_opt for patient 154:   0%|          | 0/1 [00:00<?, ?it/s][A
Calculating u_opt for patient 154: 100%|██████████| 1/1 [00:11<00:00, 11.34s/it][ACalculating u_opt for patient 154: 100%|██████████| 1/1 [00:11<00:00, 11.34s/it]
Simulating for PatientNr: 154:  12%|█▏        | 24/200 [02:52<25:15,  8.61s/it]
Calculating u_opt for patient 154:   0%|          | 0/1 [00:00<?, ?it/s][A
Calculating u_opt for patient 154: 100%|██████████| 1/1 [00:03<00:00,  3.61s/it][ACalculating u_opt for patient 154: 100%|██████████| 1/1 [00:03<00:00,  3.61s/it]
Simulating for PatientNr: 154:  12%|█▎        | 25/200 [02:56<20:51,  7.15s/it]
Calculating u_opt for patient 154:   0%|          | 0/1 [00:00<?, ?it/s][A
Calculating u_opt for patient 154: 100%|██████████| 1/1 [00:12<00:00, 12.38s/it][ACalculating u_opt for patient 154: 100%|██████████| 1/1 [00:12<00:00, 12.39s/it]
Simulating for PatientNr: 154:  13%|█▎        | 26/200 [03:08<25:24,  8.76s/it]
Calculating u_opt for patient 154:   0%|          | 0/1 [00:00<?, ?it/s][A
Calculating u_opt for patient 154: 100%|██████████| 1/1 [00:07<00:00,  7.15s/it][ACalculating u_opt for patient 154: 100%|██████████| 1/1 [00:07<00:00,  7.15s/it]
Simulating for PatientNr: 154:  14%|█▎        | 27/200 [03:15<23:59,  8.32s/it]
Calculating u_opt for patient 154:   0%|          | 0/1 [00:00<?, ?it/s][A
Calculating u_opt for patient 154: 100%|██████████| 1/1 [00:04<00:00,  4.54s/it][ACalculating u_opt for patient 154: 100%|██████████| 1/1 [00:04<00:00,  4.54s/it]
Simulating for PatientNr: 154:  14%|█▍        | 28/200 [03:20<20:42,  7.23s/it]
Calculating u_opt for patient 154:   0%|          | 0/1 [00:00<?, ?it/s][A
Calculating u_opt for patient 154: 100%|██████████| 1/1 [00:05<00:00,  5.98s/it][ACalculating u_opt for patient 154: 100%|██████████| 1/1 [00:05<00:00,  5.98s/it]
Simulating for PatientNr: 154:  14%|█▍        | 29/200 [03:26<19:38,  6.89s/it]
Calculating u_opt for patient 154:   0%|          | 0/1 [00:00<?, ?it/s][A
Calculating u_opt for patient 154: 100%|██████████| 1/1 [00:04<00:00,  4.64s/it][ACalculating u_opt for patient 154: 100%|██████████| 1/1 [00:04<00:00,  4.64s/it]
Simulating for PatientNr: 154:  15%|█▌        | 30/200 [03:31<17:44,  6.26s/it]
Calculating u_opt for patient 154:   0%|          | 0/1 [00:00<?, ?it/s][A
Calculating u_opt for patient 154: 100%|██████████| 1/1 [00:05<00:00,  5.96s/it][ACalculating u_opt for patient 154: 100%|██████████| 1/1 [00:05<00:00,  5.96s/it]
Simulating for PatientNr: 154:  16%|█▌        | 31/200 [03:37<17:30,  6.21s/it]
Calculating u_opt for patient 154:   0%|          | 0/1 [00:00<?, ?it/s][A
Calculating u_opt for patient 154: 100%|██████████| 1/1 [00:06<00:00,  6.58s/it][ACalculating u_opt for patient 154: 100%|██████████| 1/1 [00:06<00:00,  6.58s/it]
Simulating for PatientNr: 154:  16%|█▌        | 32/200 [03:44<17:48,  6.36s/it]
Calculating u_opt for patient 154:   0%|          | 0/1 [00:00<?, ?it/s][A
Calculating u_opt for patient 154: 100%|██████████| 1/1 [00:04<00:00,  4.95s/it][ACalculating u_opt for patient 154: 100%|██████████| 1/1 [00:04<00:00,  4.95s/it]
Simulating for PatientNr: 154:  16%|█▋        | 33/200 [03:49<16:38,  5.98s/it]
Calculating u_opt for patient 154:   0%|          | 0/1 [00:00<?, ?it/s][A
Calculating u_opt for patient 154: 100%|██████████| 1/1 [00:07<00:00,  7.59s/it][ACalculating u_opt for patient 154: 100%|██████████| 1/1 [00:07<00:00,  7.60s/it]
Simulating for PatientNr: 154:  17%|█▋        | 34/200 [03:57<17:59,  6.50s/it]
Calculating u_opt for patient 154:   0%|          | 0/1 [00:00<?, ?it/s][A
Calculating u_opt for patient 154: 100%|██████████| 1/1 [00:08<00:00,  8.52s/it][ACalculating u_opt for patient 154: 100%|██████████| 1/1 [00:08<00:00,  8.52s/it]
Simulating for PatientNr: 154:  18%|█▊        | 35/200 [04:05<19:39,  7.15s/it]
Calculating u_opt for patient 154:   0%|          | 0/1 [00:00<?, ?it/s][A
Calculating u_opt for patient 154: 100%|██████████| 1/1 [00:04<00:00,  4.28s/it][ACalculating u_opt for patient 154: 100%|██████████| 1/1 [00:04<00:00,  4.28s/it]
Simulating for PatientNr: 154:  18%|█▊        | 36/200 [04:10<17:19,  6.34s/it]
Calculating u_opt for patient 154:   0%|          | 0/1 [00:00<?, ?it/s][A
Calculating u_opt for patient 154: 100%|██████████| 1/1 [00:12<00:00, 12.24s/it][ACalculating u_opt for patient 154: 100%|██████████| 1/1 [00:12<00:00, 12.24s/it]
Simulating for PatientNr: 154:  18%|█▊        | 37/200 [04:22<22:08,  8.15s/it]
Calculating u_opt for patient 154:   0%|          | 0/1 [00:00<?, ?it/s][A
Calculating u_opt for patient 154: 100%|██████████| 1/1 [00:05<00:00,  5.22s/it][ACalculating u_opt for patient 154: 100%|██████████| 1/1 [00:05<00:00,  5.22s/it]
Simulating for PatientNr: 154:  19%|█▉        | 38/200 [04:28<19:44,  7.31s/it]
Calculating u_opt for patient 154:   0%|          | 0/1 [00:00<?, ?it/s][A
Calculating u_opt for patient 154: 100%|██████████| 1/1 [00:07<00:00,  7.91s/it][ACalculating u_opt for patient 154: 100%|██████████| 1/1 [00:07<00:00,  7.91s/it]
Simulating for PatientNr: 154:  20%|█▉        | 39/200 [04:36<20:12,  7.53s/it]
Calculating u_opt for patient 154:   0%|          | 0/1 [00:00<?, ?it/s][A
Calculating u_opt for patient 154: 100%|██████████| 1/1 [00:07<00:00,  7.59s/it][ACalculating u_opt for patient 154: 100%|██████████| 1/1 [00:07<00:00,  7.59s/it]
Simulating for PatientNr: 154:  20%|██        | 40/200 [04:43<20:14,  7.59s/it]
Calculating u_opt for patient 154:   0%|          | 0/1 [00:00<?, ?it/s][A
Calculating u_opt for patient 154: 100%|██████████| 1/1 [00:05<00:00,  5.92s/it][ACalculating u_opt for patient 154: 100%|██████████| 1/1 [00:05<00:00,  5.92s/it]
Simulating for PatientNr: 154:  20%|██        | 41/200 [04:49<18:53,  7.13s/it]
Calculating u_opt for patient 154:   0%|          | 0/1 [00:00<?, ?it/s][A
Calculating u_opt for patient 154: 100%|██████████| 1/1 [00:06<00:00,  6.80s/it][ACalculating u_opt for patient 154: 100%|██████████| 1/1 [00:06<00:00,  6.80s/it]
Simulating for PatientNr: 154:  21%|██        | 42/200 [04:56<18:36,  7.07s/it]
Calculating u_opt for patient 154:   0%|          | 0/1 [00:00<?, ?it/s][A
Calculating u_opt for patient 154: 100%|██████████| 1/1 [00:06<00:00,  6.92s/it][ACalculating u_opt for patient 154: 100%|██████████| 1/1 [00:06<00:00,  6.92s/it]
Simulating for PatientNr: 154:  22%|██▏       | 43/200 [05:03<18:29,  7.07s/it]
Calculating u_opt for patient 154:   0%|          | 0/1 [00:00<?, ?it/s][A
Calculating u_opt for patient 154: 100%|██████████| 1/1 [00:04<00:00,  4.66s/it][ACalculating u_opt for patient 154: 100%|██████████| 1/1 [00:04<00:00,  4.67s/it]
Simulating for PatientNr: 154:  22%|██▏       | 44/200 [05:08<16:36,  6.38s/it]
Calculating u_opt for patient 154:   0%|          | 0/1 [00:00<?, ?it/s][A
Calculating u_opt for patient 154: 100%|██████████| 1/1 [00:03<00:00,  3.86s/it][ACalculating u_opt for patient 154: 100%|██████████| 1/1 [00:03<00:00,  3.87s/it]
Simulating for PatientNr: 154:  22%|██▎       | 45/200 [05:12<14:38,  5.67s/it]
Calculating u_opt for patient 154:   0%|          | 0/1 [00:00<?, ?it/s][A
Calculating u_opt for patient 154: 100%|██████████| 1/1 [00:04<00:00,  4.44s/it][ACalculating u_opt for patient 154: 100%|██████████| 1/1 [00:04<00:00,  4.44s/it]
Simulating for PatientNr: 154:  23%|██▎       | 46/200 [05:17<13:42,  5.34s/it]
Calculating u_opt for patient 154:   0%|          | 0/1 [00:00<?, ?it/s][A
Calculating u_opt for patient 154: 100%|██████████| 1/1 [00:06<00:00,  6.52s/it][ACalculating u_opt for patient 154: 100%|██████████| 1/1 [00:06<00:00,  6.52s/it]
Simulating for PatientNr: 154:  24%|██▎       | 47/200 [05:23<14:37,  5.74s/it]
Calculating u_opt for patient 154:   0%|          | 0/1 [00:00<?, ?it/s][A
Calculating u_opt for patient 154: 100%|██████████| 1/1 [00:09<00:00,  9.04s/it][ACalculating u_opt for patient 154: 100%|██████████| 1/1 [00:09<00:00,  9.04s/it]
Simulating for PatientNr: 154:  24%|██▍       | 48/200 [05:33<17:08,  6.77s/it]
Calculating u_opt for patient 154:   0%|          | 0/1 [00:00<?, ?it/s][A
Calculating u_opt for patient 154: 100%|██████████| 1/1 [00:06<00:00,  6.69s/it][ACalculating u_opt for patient 154: 100%|██████████| 1/1 [00:06<00:00,  6.69s/it]
Simulating for PatientNr: 154:  24%|██▍       | 49/200 [05:39<17:04,  6.78s/it]
Calculating u_opt for patient 154:   0%|          | 0/1 [00:00<?, ?it/s][A
Calculating u_opt for patient 154: 100%|██████████| 1/1 [00:03<00:00,  3.18s/it][ACalculating u_opt for patient 154: 100%|██████████| 1/1 [00:03<00:00,  3.18s/it]
Simulating for PatientNr: 154:  25%|██▌       | 50/200 [05:43<14:21,  5.74s/it]
Calculating u_opt for patient 154:   0%|          | 0/1 [00:00<?, ?it/s][A
Calculating u_opt for patient 154: 100%|██████████| 1/1 [00:05<00:00,  5.93s/it][ACalculating u_opt for patient 154: 100%|██████████| 1/1 [00:05<00:00,  5.93s/it]
Simulating for PatientNr: 154:  26%|██▌       | 51/200 [05:49<14:30,  5.84s/it]
Calculating u_opt for patient 154:   0%|          | 0/1 [00:00<?, ?it/s][A
Calculating u_opt for patient 154: 100%|██████████| 1/1 [00:07<00:00,  7.90s/it][ACalculating u_opt for patient 154: 100%|██████████| 1/1 [00:07<00:00,  7.90s/it]
Simulating for PatientNr: 154:  26%|██▌       | 52/200 [05:57<16:02,  6.50s/it]
Calculating u_opt for patient 154:   0%|          | 0/1 [00:00<?, ?it/s][A
Calculating u_opt for patient 154: 100%|██████████| 1/1 [00:06<00:00,  6.54s/it][ACalculating u_opt for patient 154: 100%|██████████| 1/1 [00:06<00:00,  6.54s/it]
Simulating for PatientNr: 154:  26%|██▋       | 53/200 [06:03<16:03,  6.55s/it]
Calculating u_opt for patient 154:   0%|          | 0/1 [00:00<?, ?it/s][A
Calculating u_opt for patient 154: 100%|██████████| 1/1 [00:07<00:00,  7.99s/it][ACalculating u_opt for patient 154: 100%|██████████| 1/1 [00:07<00:00,  7.99s/it]
Simulating for PatientNr: 154:  27%|██▋       | 54/200 [06:12<17:05,  7.03s/it]
Calculating u_opt for patient 154:   0%|          | 0/1 [00:00<?, ?it/s][A
Calculating u_opt for patient 154: 100%|██████████| 1/1 [00:10<00:00, 10.92s/it][ACalculating u_opt for patient 154: 100%|██████████| 1/1 [00:10<00:00, 10.93s/it]
Simulating for PatientNr: 154:  28%|██▊       | 55/200 [06:23<19:54,  8.24s/it]
Calculating u_opt for patient 154:   0%|          | 0/1 [00:00<?, ?it/s][A
Calculating u_opt for patient 154: 100%|██████████| 1/1 [00:07<00:00,  7.28s/it][ACalculating u_opt for patient 154: 100%|██████████| 1/1 [00:07<00:00,  7.29s/it]
Simulating for PatientNr: 154:  28%|██▊       | 56/200 [06:30<19:10,  7.99s/it]
Calculating u_opt for patient 154:   0%|          | 0/1 [00:00<?, ?it/s][A
Calculating u_opt for patient 154: 100%|██████████| 1/1 [00:04<00:00,  4.46s/it][ACalculating u_opt for patient 154: 100%|██████████| 1/1 [00:04<00:00,  4.46s/it]
Simulating for PatientNr: 154:  28%|██▊       | 57/200 [06:35<16:37,  6.97s/it]
Calculating u_opt for patient 154:   0%|          | 0/1 [00:00<?, ?it/s][A
Calculating u_opt for patient 154: 100%|██████████| 1/1 [00:06<00:00,  6.49s/it][ACalculating u_opt for patient 154: 100%|██████████| 1/1 [00:06<00:00,  6.49s/it]
Simulating for PatientNr: 154:  29%|██▉       | 58/200 [06:41<16:15,  6.87s/it]
Calculating u_opt for patient 154:   0%|          | 0/1 [00:00<?, ?it/s][A
Calculating u_opt for patient 154: 100%|██████████| 1/1 [00:06<00:00,  6.40s/it][ACalculating u_opt for patient 154: 100%|██████████| 1/1 [00:06<00:00,  6.40s/it]
Simulating for PatientNr: 154:  30%|██▉       | 59/200 [06:48<15:54,  6.77s/it]
Calculating u_opt for patient 154:   0%|          | 0/1 [00:00<?, ?it/s][A
Calculating u_opt for patient 154: 100%|██████████| 1/1 [00:10<00:00, 10.16s/it][ACalculating u_opt for patient 154: 100%|██████████| 1/1 [00:10<00:00, 10.17s/it]
Simulating for PatientNr: 154:  30%|███       | 60/200 [06:58<18:16,  7.83s/it]
Calculating u_opt for patient 154:   0%|          | 0/1 [00:00<?, ?it/s][A
Calculating u_opt for patient 154: 100%|██████████| 1/1 [00:06<00:00,  6.60s/it][ACalculating u_opt for patient 154: 100%|██████████| 1/1 [00:06<00:00,  6.60s/it]
Simulating for PatientNr: 154:  30%|███       | 61/200 [07:05<17:22,  7.50s/it]
Calculating u_opt for patient 154:   0%|          | 0/1 [00:00<?, ?it/s][A
Calculating u_opt for patient 154: 100%|██████████| 1/1 [00:06<00:00,  6.83s/it][ACalculating u_opt for patient 154: 100%|██████████| 1/1 [00:06<00:00,  6.83s/it]
Simulating for PatientNr: 154:  31%|███       | 62/200 [07:12<16:54,  7.35s/it]
Calculating u_opt for patient 154:   0%|          | 0/1 [00:00<?, ?it/s][A
Calculating u_opt for patient 154: 100%|██████████| 1/1 [00:05<00:00,  5.92s/it][ACalculating u_opt for patient 154: 100%|██████████| 1/1 [00:05<00:00,  5.92s/it]
Simulating for PatientNr: 154:  32%|███▏      | 63/200 [07:18<15:53,  6.96s/it]
Calculating u_opt for patient 154:   0%|          | 0/1 [00:00<?, ?it/s][A
Calculating u_opt for patient 154: 100%|██████████| 1/1 [00:06<00:00,  6.75s/it][ACalculating u_opt for patient 154: 100%|██████████| 1/1 [00:06<00:00,  6.75s/it]
Simulating for PatientNr: 154:  32%|███▏      | 64/200 [07:25<15:43,  6.94s/it]
Calculating u_opt for patient 154:   0%|          | 0/1 [00:00<?, ?it/s][A
Calculating u_opt for patient 154: 100%|██████████| 1/1 [00:10<00:00, 10.11s/it][ACalculating u_opt for patient 154: 100%|██████████| 1/1 [00:10<00:00, 10.11s/it]
Simulating for PatientNr: 154:  32%|███▎      | 65/200 [07:35<17:50,  7.93s/it]
Calculating u_opt for patient 154:   0%|          | 0/1 [00:00<?, ?it/s][A
Calculating u_opt for patient 154: 100%|██████████| 1/1 [00:12<00:00, 12.52s/it][ACalculating u_opt for patient 154: 100%|██████████| 1/1 [00:12<00:00, 12.52s/it]
Simulating for PatientNr: 154:  33%|███▎      | 66/200 [07:48<20:52,  9.35s/it]
Calculating u_opt for patient 154:   0%|          | 0/1 [00:00<?, ?it/s][A
Calculating u_opt for patient 154: 100%|██████████| 1/1 [00:05<00:00,  5.69s/it][ACalculating u_opt for patient 154: 100%|██████████| 1/1 [00:05<00:00,  5.69s/it]
Simulating for PatientNr: 154:  34%|███▎      | 67/200 [07:54<18:22,  8.29s/it]
Calculating u_opt for patient 154:   0%|          | 0/1 [00:00<?, ?it/s][A
Calculating u_opt for patient 154: 100%|██████████| 1/1 [00:03<00:00,  3.24s/it][ACalculating u_opt for patient 154: 100%|██████████| 1/1 [00:03<00:00,  3.24s/it]
Simulating for PatientNr: 154:  34%|███▍      | 68/200 [07:57<14:59,  6.81s/it]
Calculating u_opt for patient 154:   0%|          | 0/1 [00:00<?, ?it/s][A
Calculating u_opt for patient 154: 100%|██████████| 1/1 [00:07<00:00,  7.32s/it][ACalculating u_opt for patient 154: 100%|██████████| 1/1 [00:07<00:00,  7.33s/it]
Simulating for PatientNr: 154:  34%|███▍      | 69/200 [08:04<15:17,  7.01s/it]
Calculating u_opt for patient 154:   0%|          | 0/1 [00:00<?, ?it/s][A
Calculating u_opt for patient 154: 100%|██████████| 1/1 [00:04<00:00,  4.98s/it][ACalculating u_opt for patient 154: 100%|██████████| 1/1 [00:04<00:00,  4.98s/it]
Simulating for PatientNr: 154:  35%|███▌      | 70/200 [08:09<13:57,  6.44s/it]
Calculating u_opt for patient 154:   0%|          | 0/1 [00:00<?, ?it/s][A
Calculating u_opt for patient 154: 100%|██████████| 1/1 [00:03<00:00,  3.84s/it][ACalculating u_opt for patient 154: 100%|██████████| 1/1 [00:03<00:00,  3.84s/it]
Simulating for PatientNr: 154:  36%|███▌      | 71/200 [08:13<12:15,  5.70s/it]
Calculating u_opt for patient 154:   0%|          | 0/1 [00:00<?, ?it/s][A
Calculating u_opt for patient 154: 100%|██████████| 1/1 [00:09<00:00,  9.29s/it][ACalculating u_opt for patient 154: 100%|██████████| 1/1 [00:09<00:00,  9.29s/it]
Simulating for PatientNr: 154:  36%|███▌      | 72/200 [08:23<14:32,  6.82s/it]
Calculating u_opt for patient 154:   0%|          | 0/1 [00:00<?, ?it/s][A
Calculating u_opt for patient 154: 100%|██████████| 1/1 [00:05<00:00,  5.92s/it][ACalculating u_opt for patient 154: 100%|██████████| 1/1 [00:05<00:00,  5.92s/it]
Simulating for PatientNr: 154:  36%|███▋      | 73/200 [08:29<13:56,  6.59s/it]
Calculating u_opt for patient 154:   0%|          | 0/1 [00:00<?, ?it/s][A
Calculating u_opt for patient 154: 100%|██████████| 1/1 [00:04<00:00,  4.35s/it][ACalculating u_opt for patient 154: 100%|██████████| 1/1 [00:04<00:00,  4.35s/it]
Simulating for PatientNr: 154:  37%|███▋      | 74/200 [08:33<12:30,  5.96s/it]
Calculating u_opt for patient 154:   0%|          | 0/1 [00:00<?, ?it/s][A
Calculating u_opt for patient 154: 100%|██████████| 1/1 [00:08<00:00,  8.61s/it][ACalculating u_opt for patient 154: 100%|██████████| 1/1 [00:08<00:00,  8.61s/it]
Simulating for PatientNr: 154:  38%|███▊      | 75/200 [08:42<14:09,  6.79s/it]
Calculating u_opt for patient 154:   0%|          | 0/1 [00:00<?, ?it/s][A
Calculating u_opt for patient 154: 100%|██████████| 1/1 [00:04<00:00,  4.59s/it][ACalculating u_opt for patient 154: 100%|██████████| 1/1 [00:04<00:00,  4.59s/it]
Simulating for PatientNr: 154:  38%|███▊      | 76/200 [08:47<12:45,  6.17s/it]
Calculating u_opt for patient 154:   0%|          | 0/1 [00:00<?, ?it/s][A
Calculating u_opt for patient 154: 100%|██████████| 1/1 [00:07<00:00,  7.63s/it][ACalculating u_opt for patient 154: 100%|██████████| 1/1 [00:07<00:00,  7.63s/it]
Simulating for PatientNr: 154:  38%|███▊      | 77/200 [08:55<13:37,  6.65s/it]
Calculating u_opt for patient 154:   0%|          | 0/1 [00:00<?, ?it/s][A
Calculating u_opt for patient 154: 100%|██████████| 1/1 [00:07<00:00,  7.93s/it][ACalculating u_opt for patient 154: 100%|██████████| 1/1 [00:07<00:00,  7.93s/it]
Simulating for PatientNr: 154:  39%|███▉      | 78/200 [09:03<14:23,  7.07s/it]
Calculating u_opt for patient 154:   0%|          | 0/1 [00:00<?, ?it/s][A
Calculating u_opt for patient 154: 100%|██████████| 1/1 [00:07<00:00,  7.00s/it][ACalculating u_opt for patient 154: 100%|██████████| 1/1 [00:07<00:00,  7.01s/it]
Simulating for PatientNr: 154:  40%|███▉      | 79/200 [09:10<14:18,  7.09s/it]
Calculating u_opt for patient 154:   0%|          | 0/1 [00:00<?, ?it/s][A
Calculating u_opt for patient 154: 100%|██████████| 1/1 [00:03<00:00,  3.79s/it][ACalculating u_opt for patient 154: 100%|██████████| 1/1 [00:03<00:00,  3.80s/it]
Simulating for PatientNr: 154:  40%|████      | 80/200 [09:14<12:17,  6.14s/it]
Calculating u_opt for patient 154:   0%|          | 0/1 [00:00<?, ?it/s][A
Calculating u_opt for patient 154: 100%|██████████| 1/1 [00:08<00:00,  8.86s/it][ACalculating u_opt for patient 154: 100%|██████████| 1/1 [00:08<00:00,  8.86s/it]
Simulating for PatientNr: 154:  40%|████      | 81/200 [09:23<13:52,  7.00s/it]
Calculating u_opt for patient 154:   0%|          | 0/1 [00:00<?, ?it/s][A
Calculating u_opt for patient 154: 100%|██████████| 1/1 [00:06<00:00,  6.37s/it][ACalculating u_opt for patient 154: 100%|██████████| 1/1 [00:06<00:00,  6.37s/it]
Simulating for PatientNr: 154:  41%|████      | 82/200 [09:29<13:28,  6.85s/it]
Calculating u_opt for patient 154:   0%|          | 0/1 [00:00<?, ?it/s][A
Calculating u_opt for patient 154: 100%|██████████| 1/1 [00:06<00:00,  6.78s/it][ACalculating u_opt for patient 154: 100%|██████████| 1/1 [00:06<00:00,  6.78s/it]
Simulating for PatientNr: 154:  42%|████▏     | 83/200 [09:36<13:23,  6.87s/it]
Calculating u_opt for patient 154:   0%|          | 0/1 [00:00<?, ?it/s][A
Calculating u_opt for patient 154: 100%|██████████| 1/1 [00:04<00:00,  4.18s/it][ACalculating u_opt for patient 154: 100%|██████████| 1/1 [00:04<00:00,  4.18s/it]
Simulating for PatientNr: 154:  42%|████▏     | 84/200 [09:40<11:47,  6.10s/it]
Calculating u_opt for patient 154:   0%|          | 0/1 [00:00<?, ?it/s][A
Calculating u_opt for patient 154: 100%|██████████| 1/1 [00:05<00:00,  5.92s/it][ACalculating u_opt for patient 154: 100%|██████████| 1/1 [00:05<00:00,  5.93s/it]
Simulating for PatientNr: 154:  42%|████▎     | 85/200 [09:47<11:40,  6.09s/it]
Calculating u_opt for patient 154:   0%|          | 0/1 [00:00<?, ?it/s][A
Calculating u_opt for patient 154: 100%|██████████| 1/1 [00:05<00:00,  5.96s/it][ACalculating u_opt for patient 154: 100%|██████████| 1/1 [00:05<00:00,  5.97s/it]
Simulating for PatientNr: 154:  43%|████▎     | 86/200 [09:53<11:34,  6.09s/it]
Calculating u_opt for patient 154:   0%|          | 0/1 [00:00<?, ?it/s][A
Calculating u_opt for patient 154: 100%|██████████| 1/1 [00:05<00:00,  5.97s/it][ACalculating u_opt for patient 154: 100%|██████████| 1/1 [00:05<00:00,  5.98s/it]
Simulating for PatientNr: 154:  44%|████▎     | 87/200 [09:59<11:29,  6.10s/it]
Calculating u_opt for patient 154:   0%|          | 0/1 [00:00<?, ?it/s][A
Calculating u_opt for patient 154: 100%|██████████| 1/1 [00:03<00:00,  3.82s/it][ACalculating u_opt for patient 154: 100%|██████████| 1/1 [00:03<00:00,  3.82s/it]
Simulating for PatientNr: 154:  44%|████▍     | 88/200 [10:03<10:10,  5.45s/it]
Calculating u_opt for patient 154:   0%|          | 0/1 [00:00<?, ?it/s][A
Calculating u_opt for patient 154: 100%|██████████| 1/1 [00:07<00:00,  7.06s/it][ACalculating u_opt for patient 154: 100%|██████████| 1/1 [00:07<00:00,  7.06s/it]
Simulating for PatientNr: 154:  44%|████▍     | 89/200 [10:10<11:03,  5.98s/it]
Calculating u_opt for patient 154:   0%|          | 0/1 [00:00<?, ?it/s][A
Calculating u_opt for patient 154: 100%|██████████| 1/1 [00:13<00:00, 13.57s/it][ACalculating u_opt for patient 154: 100%|██████████| 1/1 [00:13<00:00, 13.57s/it]
Simulating for PatientNr: 154:  45%|████▌     | 90/200 [10:24<15:12,  8.30s/it]
Calculating u_opt for patient 154:   0%|          | 0/1 [00:00<?, ?it/s][A
Calculating u_opt for patient 154: 100%|██████████| 1/1 [00:06<00:00,  6.49s/it][ACalculating u_opt for patient 154: 100%|██████████| 1/1 [00:06<00:00,  6.49s/it]
Simulating for PatientNr: 154:  46%|████▌     | 91/200 [10:30<14:09,  7.79s/it]
Calculating u_opt for patient 154:   0%|          | 0/1 [00:00<?, ?it/s][A
Calculating u_opt for patient 154: 100%|██████████| 1/1 [00:07<00:00,  7.78s/it][ACalculating u_opt for patient 154: 100%|██████████| 1/1 [00:07<00:00,  7.79s/it]
Simulating for PatientNr: 154:  46%|████▌     | 92/200 [10:38<14:05,  7.83s/it]
Calculating u_opt for patient 154:   0%|          | 0/1 [00:00<?, ?it/s][A
Calculating u_opt for patient 154: 100%|██████████| 1/1 [00:03<00:00,  3.57s/it][ACalculating u_opt for patient 154: 100%|██████████| 1/1 [00:03<00:00,  3.57s/it]
Simulating for PatientNr: 154:  46%|████▋     | 93/200 [10:42<11:45,  6.60s/it]
Calculating u_opt for patient 154:   0%|          | 0/1 [00:00<?, ?it/s][A
Calculating u_opt for patient 154: 100%|██████████| 1/1 [00:11<00:00, 11.84s/it][ACalculating u_opt for patient 154: 100%|██████████| 1/1 [00:11<00:00, 11.84s/it]
Simulating for PatientNr: 154:  47%|████▋     | 94/200 [10:54<14:30,  8.21s/it]
Calculating u_opt for patient 154:   0%|          | 0/1 [00:00<?, ?it/s][A
Calculating u_opt for patient 154: 100%|██████████| 1/1 [00:05<00:00,  5.72s/it][ACalculating u_opt for patient 154: 100%|██████████| 1/1 [00:05<00:00,  5.72s/it]
Simulating for PatientNr: 154:  48%|████▊     | 95/200 [11:00<13:08,  7.51s/it]
Calculating u_opt for patient 154:   0%|          | 0/1 [00:00<?, ?it/s][A
Calculating u_opt for patient 154: 100%|██████████| 1/1 [00:11<00:00, 11.44s/it][ACalculating u_opt for patient 154: 100%|██████████| 1/1 [00:11<00:00, 11.44s/it]
Simulating for PatientNr: 154:  48%|████▊     | 96/200 [11:11<15:07,  8.72s/it]
Calculating u_opt for patient 154:   0%|          | 0/1 [00:00<?, ?it/s][A
Calculating u_opt for patient 154: 100%|██████████| 1/1 [00:05<00:00,  5.96s/it][ACalculating u_opt for patient 154: 100%|██████████| 1/1 [00:05<00:00,  5.96s/it]
Simulating for PatientNr: 154:  48%|████▊     | 97/200 [11:17<13:37,  7.94s/it]
Calculating u_opt for patient 154:   0%|          | 0/1 [00:00<?, ?it/s][A
Calculating u_opt for patient 154: 100%|██████████| 1/1 [00:03<00:00,  3.05s/it][ACalculating u_opt for patient 154: 100%|██████████| 1/1 [00:03<00:00,  3.05s/it]
Simulating for PatientNr: 154:  49%|████▉     | 98/200 [11:21<11:04,  6.51s/it]
Calculating u_opt for patient 154:   0%|          | 0/1 [00:00<?, ?it/s][A
Calculating u_opt for patient 154: 100%|██████████| 1/1 [00:08<00:00,  8.42s/it][ACalculating u_opt for patient 154: 100%|██████████| 1/1 [00:08<00:00,  8.42s/it]
Simulating for PatientNr: 154:  50%|████▉     | 99/200 [11:29<11:59,  7.13s/it]
Calculating u_opt for patient 154:   0%|          | 0/1 [00:00<?, ?it/s][A
Calculating u_opt for patient 154: 100%|██████████| 1/1 [00:04<00:00,  4.37s/it][ACalculating u_opt for patient 154: 100%|██████████| 1/1 [00:04<00:00,  4.37s/it]
Simulating for PatientNr: 154:  50%|█████     | 100/200 [11:34<10:33,  6.34s/it]
Calculating u_opt for patient 154:   0%|          | 0/1 [00:00<?, ?it/s][A
Calculating u_opt for patient 154: 100%|██████████| 1/1 [00:07<00:00,  7.83s/it][ACalculating u_opt for patient 154: 100%|██████████| 1/1 [00:07<00:00,  7.83s/it]
Simulating for PatientNr: 154:  50%|█████     | 101/200 [11:42<11:16,  6.83s/it]
Calculating u_opt for patient 154:   0%|          | 0/1 [00:00<?, ?it/s][A
Calculating u_opt for patient 154: 100%|██████████| 1/1 [00:04<00:00,  4.84s/it][ACalculating u_opt for patient 154: 100%|██████████| 1/1 [00:04<00:00,  4.84s/it]
Simulating for PatientNr: 154:  51%|█████     | 102/200 [11:47<10:14,  6.27s/it]
Calculating u_opt for patient 154:   0%|          | 0/1 [00:00<?, ?it/s][A
Calculating u_opt for patient 154: 100%|██████████| 1/1 [00:12<00:00, 12.64s/it][ACalculating u_opt for patient 154: 100%|██████████| 1/1 [00:12<00:00, 12.64s/it]
Simulating for PatientNr: 154:  52%|█████▏    | 103/200 [11:59<13:17,  8.22s/it]
Calculating u_opt for patient 154:   0%|          | 0/1 [00:00<?, ?it/s][A
Calculating u_opt for patient 154: 100%|██████████| 1/1 [00:06<00:00,  6.70s/it][ACalculating u_opt for patient 154: 100%|██████████| 1/1 [00:06<00:00,  6.70s/it]
Simulating for PatientNr: 154:  52%|█████▏    | 104/200 [12:06<12:29,  7.81s/it]
Calculating u_opt for patient 154:   0%|          | 0/1 [00:00<?, ?it/s][A
Calculating u_opt for patient 154: 100%|██████████| 1/1 [00:09<00:00,  9.88s/it][ACalculating u_opt for patient 154: 100%|██████████| 1/1 [00:09<00:00,  9.88s/it]
Simulating for PatientNr: 154:  52%|█████▎    | 105/200 [12:16<13:24,  8.47s/it]
Calculating u_opt for patient 154:   0%|          | 0/1 [00:00<?, ?it/s][A
Calculating u_opt for patient 154: 100%|██████████| 1/1 [00:12<00:00, 12.92s/it][ACalculating u_opt for patient 154: 100%|██████████| 1/1 [00:12<00:00, 12.92s/it]
Simulating for PatientNr: 154:  53%|█████▎    | 106/200 [12:29<15:25,  9.84s/it]
Calculating u_opt for patient 154:   0%|          | 0/1 [00:00<?, ?it/s][A
Calculating u_opt for patient 154: 100%|██████████| 1/1 [00:07<00:00,  7.17s/it][ACalculating u_opt for patient 154: 100%|██████████| 1/1 [00:07<00:00,  7.17s/it]
Simulating for PatientNr: 154:  54%|█████▎    | 107/200 [12:37<14:04,  9.08s/it]
Calculating u_opt for patient 154:   0%|          | 0/1 [00:00<?, ?it/s][A
Calculating u_opt for patient 154: 100%|██████████| 1/1 [00:02<00:00,  2.58s/it][ACalculating u_opt for patient 154: 100%|██████████| 1/1 [00:02<00:00,  2.58s/it]
Simulating for PatientNr: 154:  54%|█████▍    | 108/200 [12:39<10:59,  7.17s/it]
Calculating u_opt for patient 154:   0%|          | 0/1 [00:00<?, ?it/s][A
Calculating u_opt for patient 154: 100%|██████████| 1/1 [00:06<00:00,  6.50s/it][ACalculating u_opt for patient 154: 100%|██████████| 1/1 [00:06<00:00,  6.51s/it]
Simulating for PatientNr: 154:  55%|█████▍    | 109/200 [12:46<10:37,  7.01s/it]
Calculating u_opt for patient 154:   0%|          | 0/1 [00:00<?, ?it/s][A
Calculating u_opt for patient 154: 100%|██████████| 1/1 [00:04<00:00,  4.88s/it][ACalculating u_opt for patient 154: 100%|██████████| 1/1 [00:04<00:00,  4.88s/it]
Simulating for PatientNr: 154:  55%|█████▌    | 110/200 [12:51<09:37,  6.41s/it]
Calculating u_opt for patient 154:   0%|          | 0/1 [00:00<?, ?it/s][A
Calculating u_opt for patient 154: 100%|██████████| 1/1 [00:05<00:00,  5.16s/it][ACalculating u_opt for patient 154: 100%|██████████| 1/1 [00:05<00:00,  5.16s/it]
Simulating for PatientNr: 154:  56%|█████▌    | 111/200 [12:56<09:00,  6.08s/it]
Calculating u_opt for patient 154:   0%|          | 0/1 [00:00<?, ?it/s][A
Calculating u_opt for patient 154: 100%|██████████| 1/1 [00:05<00:00,  5.19s/it][ACalculating u_opt for patient 154: 100%|██████████| 1/1 [00:05<00:00,  5.19s/it]
Simulating for PatientNr: 154:  56%|█████▌    | 112/200 [13:02<08:35,  5.86s/it]
Calculating u_opt for patient 154:   0%|          | 0/1 [00:00<?, ?it/s][A
Calculating u_opt for patient 154: 100%|██████████| 1/1 [00:06<00:00,  6.13s/it][ACalculating u_opt for patient 154: 100%|██████████| 1/1 [00:06<00:00,  6.13s/it]
Simulating for PatientNr: 154:  56%|█████▋    | 113/200 [13:08<08:40,  5.98s/it]
Calculating u_opt for patient 154:   0%|          | 0/1 [00:00<?, ?it/s][A
Calculating u_opt for patient 154: 100%|██████████| 1/1 [00:04<00:00,  4.09s/it][ACalculating u_opt for patient 154: 100%|██████████| 1/1 [00:04<00:00,  4.10s/it]
Simulating for PatientNr: 154:  57%|█████▋    | 114/200 [13:12<07:49,  5.46s/it]
Calculating u_opt for patient 154:   0%|          | 0/1 [00:00<?, ?it/s][A
Calculating u_opt for patient 154: 100%|██████████| 1/1 [00:05<00:00,  5.71s/it][ACalculating u_opt for patient 154: 100%|██████████| 1/1 [00:05<00:00,  5.71s/it]
Simulating for PatientNr: 154:  57%|█████▊    | 115/200 [13:18<07:53,  5.57s/it]
Calculating u_opt for patient 154:   0%|          | 0/1 [00:00<?, ?it/s][A
Calculating u_opt for patient 154: 100%|██████████| 1/1 [00:07<00:00,  7.55s/it][ACalculating u_opt for patient 154: 100%|██████████| 1/1 [00:07<00:00,  7.55s/it]
Simulating for PatientNr: 154:  58%|█████▊    | 116/200 [13:26<08:41,  6.21s/it]
Calculating u_opt for patient 154:   0%|          | 0/1 [00:00<?, ?it/s][A
Calculating u_opt for patient 154: 100%|██████████| 1/1 [00:03<00:00,  3.21s/it][ACalculating u_opt for patient 154: 100%|██████████| 1/1 [00:03<00:00,  3.21s/it]
Simulating for PatientNr: 154:  58%|█████▊    | 117/200 [13:29<07:23,  5.35s/it]
Calculating u_opt for patient 154:   0%|          | 0/1 [00:00<?, ?it/s][A
Calculating u_opt for patient 154: 100%|██████████| 1/1 [00:05<00:00,  5.68s/it][ACalculating u_opt for patient 154: 100%|██████████| 1/1 [00:05<00:00,  5.68s/it]
Simulating for PatientNr: 154:  59%|█████▉    | 118/200 [13:35<07:30,  5.49s/it]
Calculating u_opt for patient 154:   0%|          | 0/1 [00:00<?, ?it/s][A
Calculating u_opt for patient 154: 100%|██████████| 1/1 [00:04<00:00,  4.39s/it][ACalculating u_opt for patient 154: 100%|██████████| 1/1 [00:04<00:00,  4.39s/it]
Simulating for PatientNr: 154:  60%|█████▉    | 119/200 [13:39<07:01,  5.20s/it]
Calculating u_opt for patient 154:   0%|          | 0/1 [00:00<?, ?it/s][A
Calculating u_opt for patient 154: 100%|██████████| 1/1 [00:06<00:00,  6.28s/it][ACalculating u_opt for patient 154: 100%|██████████| 1/1 [00:06<00:00,  6.28s/it]
Simulating for PatientNr: 154:  60%|██████    | 120/200 [13:46<07:25,  5.57s/it]
Calculating u_opt for patient 154:   0%|          | 0/1 [00:00<?, ?it/s][A
Calculating u_opt for patient 154: 100%|██████████| 1/1 [00:13<00:00, 13.25s/it][ACalculating u_opt for patient 154: 100%|██████████| 1/1 [00:13<00:00, 13.25s/it]
Simulating for PatientNr: 154:  60%|██████    | 121/200 [13:59<10:25,  7.91s/it]
Calculating u_opt for patient 154:   0%|          | 0/1 [00:00<?, ?it/s][A
Calculating u_opt for patient 154: 100%|██████████| 1/1 [00:06<00:00,  6.94s/it][ACalculating u_opt for patient 154: 100%|██████████| 1/1 [00:06<00:00,  6.94s/it]
Simulating for PatientNr: 154:  61%|██████    | 122/200 [14:06<09:57,  7.66s/it]
Calculating u_opt for patient 154:   0%|          | 0/1 [00:00<?, ?it/s][A
Calculating u_opt for patient 154: 100%|██████████| 1/1 [00:08<00:00,  8.53s/it][ACalculating u_opt for patient 154: 100%|██████████| 1/1 [00:08<00:00,  8.53s/it]
Simulating for PatientNr: 154:  62%|██████▏   | 123/200 [14:15<10:12,  7.96s/it]
Calculating u_opt for patient 154:   0%|          | 0/1 [00:00<?, ?it/s][A
Calculating u_opt for patient 154: 100%|██████████| 1/1 [00:09<00:00,  9.22s/it][ACalculating u_opt for patient 154: 100%|██████████| 1/1 [00:09<00:00,  9.22s/it]
Simulating for PatientNr: 154:  62%|██████▏   | 124/200 [14:24<10:36,  8.38s/it]
Calculating u_opt for patient 154:   0%|          | 0/1 [00:00<?, ?it/s][A
Calculating u_opt for patient 154: 100%|██████████| 1/1 [00:12<00:00, 12.12s/it][ACalculating u_opt for patient 154: 100%|██████████| 1/1 [00:12<00:00, 12.12s/it]
Simulating for PatientNr: 154:  62%|██████▎   | 125/200 [14:36<11:55,  9.54s/it]
Calculating u_opt for patient 154:   0%|          | 0/1 [00:00<?, ?it/s][A
Calculating u_opt for patient 154: 100%|██████████| 1/1 [00:03<00:00,  3.78s/it][ACalculating u_opt for patient 154: 100%|██████████| 1/1 [00:03<00:00,  3.79s/it]
Simulating for PatientNr: 154:  63%|██████▎   | 126/200 [14:40<09:41,  7.86s/it]
Calculating u_opt for patient 154:   0%|          | 0/1 [00:00<?, ?it/s][A
Calculating u_opt for patient 154: 100%|██████████| 1/1 [00:11<00:00, 11.38s/it][ACalculating u_opt for patient 154: 100%|██████████| 1/1 [00:11<00:00, 11.38s/it]
Simulating for PatientNr: 154:  64%|██████▎   | 127/200 [14:52<10:53,  8.95s/it]
Calculating u_opt for patient 154:   0%|          | 0/1 [00:00<?, ?it/s][A
Calculating u_opt for patient 154: 100%|██████████| 1/1 [00:08<00:00,  8.61s/it][ACalculating u_opt for patient 154: 100%|██████████| 1/1 [00:08<00:00,  8.61s/it]
Simulating for PatientNr: 154:  64%|██████▍   | 128/200 [15:01<10:40,  8.89s/it]
Calculating u_opt for patient 154:   0%|          | 0/1 [00:00<?, ?it/s][A
Calculating u_opt for patient 154: 100%|██████████| 1/1 [00:04<00:00,  4.65s/it][ACalculating u_opt for patient 154: 100%|██████████| 1/1 [00:04<00:00,  4.65s/it]
Simulating for PatientNr: 154:  64%|██████▍   | 129/200 [15:05<09:03,  7.66s/it]
Calculating u_opt for patient 154:   0%|          | 0/1 [00:00<?, ?it/s][A
Calculating u_opt for patient 154: 100%|██████████| 1/1 [00:04<00:00,  4.04s/it][ACalculating u_opt for patient 154: 100%|██████████| 1/1 [00:04<00:00,  4.04s/it]
Simulating for PatientNr: 154:  65%|██████▌   | 130/200 [15:10<07:43,  6.62s/it]
Calculating u_opt for patient 154:   0%|          | 0/1 [00:00<?, ?it/s][A
Calculating u_opt for patient 154: 100%|██████████| 1/1 [00:05<00:00,  5.47s/it][ACalculating u_opt for patient 154: 100%|██████████| 1/1 [00:05<00:00,  5.47s/it]
Simulating for PatientNr: 154:  66%|██████▌   | 131/200 [15:15<07:15,  6.31s/it]
Calculating u_opt for patient 154:   0%|          | 0/1 [00:00<?, ?it/s][A
Calculating u_opt for patient 154: 100%|██████████| 1/1 [00:11<00:00, 11.52s/it][ACalculating u_opt for patient 154: 100%|██████████| 1/1 [00:11<00:00, 11.52s/it]
Simulating for PatientNr: 154:  66%|██████▌   | 132/200 [15:27<08:58,  7.92s/it]
Calculating u_opt for patient 154:   0%|          | 0/1 [00:00<?, ?it/s][A
Calculating u_opt for patient 154: 100%|██████████| 1/1 [00:06<00:00,  6.25s/it][ACalculating u_opt for patient 154: 100%|██████████| 1/1 [00:06<00:00,  6.25s/it]
Simulating for PatientNr: 154:  66%|██████▋   | 133/200 [15:33<08:19,  7.46s/it]
Calculating u_opt for patient 154:   0%|          | 0/1 [00:00<?, ?it/s][A
Calculating u_opt for patient 154: 100%|██████████| 1/1 [00:06<00:00,  6.40s/it][ACalculating u_opt for patient 154: 100%|██████████| 1/1 [00:06<00:00,  6.40s/it]
Simulating for PatientNr: 154:  67%|██████▋   | 134/200 [15:40<07:53,  7.18s/it]
Calculating u_opt for patient 154:   0%|          | 0/1 [00:00<?, ?it/s][A
Calculating u_opt for patient 154: 100%|██████████| 1/1 [00:07<00:00,  7.08s/it][ACalculating u_opt for patient 154: 100%|██████████| 1/1 [00:07<00:00,  7.08s/it]
Simulating for PatientNr: 154:  68%|██████▊   | 135/200 [15:47<07:47,  7.19s/it]
Calculating u_opt for patient 154:   0%|          | 0/1 [00:00<?, ?it/s][A
Calculating u_opt for patient 154: 100%|██████████| 1/1 [00:05<00:00,  5.42s/it][ACalculating u_opt for patient 154: 100%|██████████| 1/1 [00:05<00:00,  5.42s/it]
Simulating for PatientNr: 154:  68%|██████▊   | 136/200 [15:53<07:08,  6.70s/it]
Calculating u_opt for patient 154:   0%|          | 0/1 [00:00<?, ?it/s][A
Calculating u_opt for patient 154: 100%|██████████| 1/1 [00:12<00:00, 12.90s/it][ACalculating u_opt for patient 154: 100%|██████████| 1/1 [00:12<00:00, 12.90s/it]
Simulating for PatientNr: 154:  68%|██████▊   | 137/200 [16:06<09:02,  8.61s/it]
Calculating u_opt for patient 154:   0%|          | 0/1 [00:00<?, ?it/s][A
Calculating u_opt for patient 154: 100%|██████████| 1/1 [00:07<00:00,  7.19s/it][ACalculating u_opt for patient 154: 100%|██████████| 1/1 [00:07<00:00,  7.19s/it]
Simulating for PatientNr: 154:  69%|██████▉   | 138/200 [16:13<08:29,  8.22s/it]
Calculating u_opt for patient 154:   0%|          | 0/1 [00:00<?, ?it/s][A
Calculating u_opt for patient 154: 100%|██████████| 1/1 [00:08<00:00,  8.15s/it][ACalculating u_opt for patient 154: 100%|██████████| 1/1 [00:08<00:00,  8.15s/it]
Simulating for PatientNr: 154:  70%|██████▉   | 139/200 [16:21<08:22,  8.24s/it]
Calculating u_opt for patient 154:   0%|          | 0/1 [00:00<?, ?it/s][A
Calculating u_opt for patient 154: 100%|██████████| 1/1 [00:05<00:00,  5.34s/it][ACalculating u_opt for patient 154: 100%|██████████| 1/1 [00:05<00:00,  5.34s/it]
Simulating for PatientNr: 154:  70%|███████   | 140/200 [16:27<07:24,  7.41s/it]
Calculating u_opt for patient 154:   0%|          | 0/1 [00:00<?, ?it/s][A
Calculating u_opt for patient 154: 100%|██████████| 1/1 [00:05<00:00,  5.99s/it][ACalculating u_opt for patient 154: 100%|██████████| 1/1 [00:05<00:00,  5.99s/it]
Simulating for PatientNr: 154:  70%|███████   | 141/200 [16:33<06:54,  7.03s/it]
Calculating u_opt for patient 154:   0%|          | 0/1 [00:00<?, ?it/s][A
Calculating u_opt for patient 154: 100%|██████████| 1/1 [00:04<00:00,  4.92s/it][ACalculating u_opt for patient 154: 100%|██████████| 1/1 [00:04<00:00,  4.92s/it]
Simulating for PatientNr: 154:  71%|███████   | 142/200 [16:38<06:13,  6.44s/it]
Calculating u_opt for patient 154:   0%|          | 0/1 [00:00<?, ?it/s][A
Calculating u_opt for patient 154: 100%|██████████| 1/1 [00:14<00:00, 14.14s/it][ACalculating u_opt for patient 154: 100%|██████████| 1/1 [00:14<00:00, 14.14s/it]
Simulating for PatientNr: 154:  72%|███████▏  | 143/200 [16:52<08:20,  8.79s/it]
Calculating u_opt for patient 154:   0%|          | 0/1 [00:00<?, ?it/s][A
Calculating u_opt for patient 154: 100%|██████████| 1/1 [00:03<00:00,  3.26s/it][ACalculating u_opt for patient 154: 100%|██████████| 1/1 [00:03<00:00,  3.26s/it]
Simulating for PatientNr: 154:  72%|███████▏  | 144/200 [16:56<06:41,  7.17s/it]
Calculating u_opt for patient 154:   0%|          | 0/1 [00:00<?, ?it/s][A
Calculating u_opt for patient 154: 100%|██████████| 1/1 [00:04<00:00,  4.65s/it][ACalculating u_opt for patient 154: 100%|██████████| 1/1 [00:04<00:00,  4.66s/it]
Simulating for PatientNr: 154:  72%|███████▎  | 145/200 [17:00<05:55,  6.46s/it]
Calculating u_opt for patient 154:   0%|          | 0/1 [00:00<?, ?it/s][A
Calculating u_opt for patient 154: 100%|██████████| 1/1 [00:05<00:00,  5.51s/it][ACalculating u_opt for patient 154: 100%|██████████| 1/1 [00:05<00:00,  5.51s/it]
Simulating for PatientNr: 154:  73%|███████▎  | 146/200 [17:06<05:35,  6.21s/it]
Calculating u_opt for patient 154:   0%|          | 0/1 [00:00<?, ?it/s][A
Calculating u_opt for patient 154: 100%|██████████| 1/1 [00:06<00:00,  6.74s/it][ACalculating u_opt for patient 154: 100%|██████████| 1/1 [00:06<00:00,  6.75s/it]
Simulating for PatientNr: 154:  74%|███████▎  | 147/200 [17:13<05:39,  6.41s/it]
Calculating u_opt for patient 154:   0%|          | 0/1 [00:00<?, ?it/s][A
Calculating u_opt for patient 154: 100%|██████████| 1/1 [00:05<00:00,  5.32s/it][ACalculating u_opt for patient 154: 100%|██████████| 1/1 [00:05<00:00,  5.32s/it]
Simulating for PatientNr: 154:  74%|███████▍  | 148/200 [17:18<05:18,  6.13s/it]
Calculating u_opt for patient 154:   0%|          | 0/1 [00:00<?, ?it/s][A
Calculating u_opt for patient 154: 100%|██████████| 1/1 [00:06<00:00,  6.44s/it][ACalculating u_opt for patient 154: 100%|██████████| 1/1 [00:06<00:00,  6.45s/it]
Simulating for PatientNr: 154:  74%|███████▍  | 149/200 [17:25<05:19,  6.26s/it]
Calculating u_opt for patient 154:   0%|          | 0/1 [00:00<?, ?it/s][A
Calculating u_opt for patient 154: 100%|██████████| 1/1 [00:06<00:00,  6.81s/it][ACalculating u_opt for patient 154: 100%|██████████| 1/1 [00:06<00:00,  6.81s/it]
Simulating for PatientNr: 154:  75%|███████▌  | 150/200 [17:32<05:23,  6.47s/it]
Calculating u_opt for patient 154:   0%|          | 0/1 [00:00<?, ?it/s][A
Calculating u_opt for patient 154: 100%|██████████| 1/1 [00:05<00:00,  5.20s/it][ACalculating u_opt for patient 154: 100%|██████████| 1/1 [00:05<00:00,  5.20s/it]
Simulating for PatientNr: 154:  76%|███████▌  | 151/200 [17:37<05:00,  6.13s/it]
Calculating u_opt for patient 154:   0%|          | 0/1 [00:00<?, ?it/s][A
Calculating u_opt for patient 154: 100%|██████████| 1/1 [00:05<00:00,  5.73s/it][ACalculating u_opt for patient 154: 100%|██████████| 1/1 [00:05<00:00,  5.73s/it]
Simulating for PatientNr: 154:  76%|███████▌  | 152/200 [17:43<04:50,  6.05s/it]
Calculating u_opt for patient 154:   0%|          | 0/1 [00:00<?, ?it/s][A
Calculating u_opt for patient 154: 100%|██████████| 1/1 [00:05<00:00,  5.19s/it][ACalculating u_opt for patient 154: 100%|██████████| 1/1 [00:05<00:00,  5.19s/it]
Simulating for PatientNr: 154:  76%|███████▋  | 153/200 [17:48<04:34,  5.84s/it]
Calculating u_opt for patient 154:   0%|          | 0/1 [00:00<?, ?it/s][A
Calculating u_opt for patient 154: 100%|██████████| 1/1 [00:06<00:00,  6.74s/it][ACalculating u_opt for patient 154: 100%|██████████| 1/1 [00:06<00:00,  6.75s/it]
Simulating for PatientNr: 154:  77%|███████▋  | 154/200 [17:55<04:42,  6.15s/it]
Calculating u_opt for patient 154:   0%|          | 0/1 [00:00<?, ?it/s][A
Calculating u_opt for patient 154: 100%|██████████| 1/1 [00:04<00:00,  4.54s/it][ACalculating u_opt for patient 154: 100%|██████████| 1/1 [00:04<00:00,  4.54s/it]
Simulating for PatientNr: 154:  78%|███████▊  | 155/200 [18:00<04:17,  5.71s/it]
Calculating u_opt for patient 154:   0%|          | 0/1 [00:00<?, ?it/s][A
Calculating u_opt for patient 154: 100%|██████████| 1/1 [00:07<00:00,  7.86s/it][ACalculating u_opt for patient 154: 100%|██████████| 1/1 [00:07<00:00,  7.86s/it]
Simulating for PatientNr: 154:  78%|███████▊  | 156/200 [18:08<04:41,  6.40s/it]
Calculating u_opt for patient 154:   0%|          | 0/1 [00:00<?, ?it/s][A
Calculating u_opt for patient 154: 100%|██████████| 1/1 [00:06<00:00,  6.84s/it][ACalculating u_opt for patient 154: 100%|██████████| 1/1 [00:06<00:00,  6.84s/it]
Simulating for PatientNr: 154:  78%|███████▊  | 157/200 [18:15<04:42,  6.57s/it]
Calculating u_opt for patient 154:   0%|          | 0/1 [00:00<?, ?it/s][A
Calculating u_opt for patient 154: 100%|██████████| 1/1 [00:05<00:00,  5.18s/it][ACalculating u_opt for patient 154: 100%|██████████| 1/1 [00:05<00:00,  5.18s/it]
Simulating for PatientNr: 154:  79%|███████▉  | 158/200 [18:20<04:20,  6.19s/it]
Calculating u_opt for patient 154:   0%|          | 0/1 [00:00<?, ?it/s][A
Calculating u_opt for patient 154: 100%|██████████| 1/1 [00:13<00:00, 13.92s/it][ACalculating u_opt for patient 154: 100%|██████████| 1/1 [00:13<00:00, 13.92s/it]
Simulating for PatientNr: 154:  80%|███████▉  | 159/200 [18:34<05:50,  8.55s/it]
Calculating u_opt for patient 154:   0%|          | 0/1 [00:00<?, ?it/s][A
Calculating u_opt for patient 154: 100%|██████████| 1/1 [00:12<00:00, 12.46s/it][ACalculating u_opt for patient 154: 100%|██████████| 1/1 [00:12<00:00, 12.46s/it]
Simulating for PatientNr: 154:  80%|████████  | 160/200 [18:47<06:30,  9.77s/it]
Calculating u_opt for patient 154:   0%|          | 0/1 [00:00<?, ?it/s][A
Calculating u_opt for patient 154: 100%|██████████| 1/1 [00:06<00:00,  6.84s/it][ACalculating u_opt for patient 154: 100%|██████████| 1/1 [00:06<00:00,  6.84s/it]
Simulating for PatientNr: 154:  80%|████████  | 161/200 [18:54<05:48,  8.93s/it]
Calculating u_opt for patient 154:   0%|          | 0/1 [00:00<?, ?it/s][A
Calculating u_opt for patient 154: 100%|██████████| 1/1 [00:06<00:00,  6.34s/it][ACalculating u_opt for patient 154: 100%|██████████| 1/1 [00:06<00:00,  6.34s/it]
Simulating for PatientNr: 154:  81%|████████  | 162/200 [19:00<05:11,  8.19s/it]
Calculating u_opt for patient 154:   0%|          | 0/1 [00:00<?, ?it/s][A
Calculating u_opt for patient 154: 100%|██████████| 1/1 [00:05<00:00,  5.85s/it][ACalculating u_opt for patient 154: 100%|██████████| 1/1 [00:05<00:00,  5.85s/it]
Simulating for PatientNr: 154:  82%|████████▏ | 163/200 [19:06<04:38,  7.53s/it]
Calculating u_opt for patient 154:   0%|          | 0/1 [00:00<?, ?it/s][A
Calculating u_opt for patient 154: 100%|██████████| 1/1 [00:12<00:00, 12.71s/it][ACalculating u_opt for patient 154: 100%|██████████| 1/1 [00:12<00:00, 12.71s/it]
Simulating for PatientNr: 154:  82%|████████▏ | 164/200 [19:19<05:28,  9.13s/it]
Calculating u_opt for patient 154:   0%|          | 0/1 [00:00<?, ?it/s][A
Calculating u_opt for patient 154: 100%|██████████| 1/1 [00:14<00:00, 14.58s/it][ACalculating u_opt for patient 154: 100%|██████████| 1/1 [00:14<00:00, 14.58s/it]
Simulating for PatientNr: 154:  82%|████████▎ | 165/200 [19:34<06:18, 10.80s/it]
Calculating u_opt for patient 154:   0%|          | 0/1 [00:00<?, ?it/s][A
Calculating u_opt for patient 154: 100%|██████████| 1/1 [00:04<00:00,  4.13s/it][ACalculating u_opt for patient 154: 100%|██████████| 1/1 [00:04<00:00,  4.13s/it]
Simulating for PatientNr: 154:  83%|████████▎ | 166/200 [19:38<05:00,  8.84s/it]
Calculating u_opt for patient 154:   0%|          | 0/1 [00:00<?, ?it/s][A
Calculating u_opt for patient 154: 100%|██████████| 1/1 [00:06<00:00,  6.56s/it][ACalculating u_opt for patient 154: 100%|██████████| 1/1 [00:06<00:00,  6.56s/it]
Simulating for PatientNr: 154:  84%|████████▎ | 167/200 [19:45<04:30,  8.20s/it]
Calculating u_opt for patient 154:   0%|          | 0/1 [00:00<?, ?it/s][A
Calculating u_opt for patient 154: 100%|██████████| 1/1 [00:05<00:00,  5.74s/it][ACalculating u_opt for patient 154: 100%|██████████| 1/1 [00:05<00:00,  5.74s/it]
Simulating for PatientNr: 154:  84%|████████▍ | 168/200 [19:51<04:00,  7.50s/it]
Calculating u_opt for patient 154:   0%|          | 0/1 [00:00<?, ?it/s][A
Calculating u_opt for patient 154: 100%|██████████| 1/1 [00:11<00:00, 11.85s/it][ACalculating u_opt for patient 154: 100%|██████████| 1/1 [00:11<00:00, 11.86s/it]
Simulating for PatientNr: 154:  84%|████████▍ | 169/200 [20:03<04:34,  8.85s/it]
Calculating u_opt for patient 154:   0%|          | 0/1 [00:00<?, ?it/s][A
Calculating u_opt for patient 154: 100%|██████████| 1/1 [00:04<00:00,  4.61s/it][ACalculating u_opt for patient 154: 100%|██████████| 1/1 [00:04<00:00,  4.61s/it]
Simulating for PatientNr: 154:  85%|████████▌ | 170/200 [20:07<03:48,  7.62s/it]
Calculating u_opt for patient 154:   0%|          | 0/1 [00:00<?, ?it/s][A
Calculating u_opt for patient 154: 100%|██████████| 1/1 [00:06<00:00,  6.71s/it][ACalculating u_opt for patient 154: 100%|██████████| 1/1 [00:06<00:00,  6.71s/it]
Simulating for PatientNr: 154:  86%|████████▌ | 171/200 [20:14<03:34,  7.38s/it]
Calculating u_opt for patient 154:   0%|          | 0/1 [00:00<?, ?it/s][A
Calculating u_opt for patient 154: 100%|██████████| 1/1 [00:05<00:00,  5.95s/it][ACalculating u_opt for patient 154: 100%|██████████| 1/1 [00:05<00:00,  5.96s/it]
Simulating for PatientNr: 154:  86%|████████▌ | 172/200 [20:20<03:15,  7.00s/it]
Calculating u_opt for patient 154:   0%|          | 0/1 [00:00<?, ?it/s][A
Calculating u_opt for patient 154: 100%|██████████| 1/1 [00:07<00:00,  7.48s/it][ACalculating u_opt for patient 154: 100%|██████████| 1/1 [00:07<00:00,  7.48s/it]
Simulating for PatientNr: 154:  86%|████████▋ | 173/200 [20:28<03:13,  7.18s/it]
Calculating u_opt for patient 154:   0%|          | 0/1 [00:00<?, ?it/s][A
Calculating u_opt for patient 154: 100%|██████████| 1/1 [00:05<00:00,  5.96s/it][ACalculating u_opt for patient 154: 100%|██████████| 1/1 [00:05<00:00,  5.96s/it]
Simulating for PatientNr: 154:  87%|████████▋ | 174/200 [20:34<02:58,  6.85s/it]
Calculating u_opt for patient 154:   0%|          | 0/1 [00:00<?, ?it/s][A
Calculating u_opt for patient 154: 100%|██████████| 1/1 [00:10<00:00, 10.18s/it][ACalculating u_opt for patient 154: 100%|██████████| 1/1 [00:10<00:00, 10.19s/it]
Simulating for PatientNr: 154:  88%|████████▊ | 175/200 [20:44<03:17,  7.89s/it]
Calculating u_opt for patient 154:   0%|          | 0/1 [00:00<?, ?it/s][A
Calculating u_opt for patient 154: 100%|██████████| 1/1 [00:07<00:00,  7.84s/it][ACalculating u_opt for patient 154: 100%|██████████| 1/1 [00:07<00:00,  7.84s/it]
Simulating for PatientNr: 154:  88%|████████▊ | 176/200 [20:52<03:10,  7.92s/it]
Calculating u_opt for patient 154:   0%|          | 0/1 [00:00<?, ?it/s][A
Calculating u_opt for patient 154: 100%|██████████| 1/1 [00:10<00:00, 10.46s/it][ACalculating u_opt for patient 154: 100%|██████████| 1/1 [00:10<00:00, 10.46s/it]
Simulating for PatientNr: 154:  88%|████████▊ | 177/200 [21:03<03:20,  8.72s/it]
Calculating u_opt for patient 154:   0%|          | 0/1 [00:00<?, ?it/s][A
Calculating u_opt for patient 154: 100%|██████████| 1/1 [00:08<00:00,  8.25s/it][ACalculating u_opt for patient 154: 100%|██████████| 1/1 [00:08<00:00,  8.25s/it]
Simulating for PatientNr: 154:  89%|████████▉ | 178/200 [21:11<03:09,  8.62s/it]
Calculating u_opt for patient 154:   0%|          | 0/1 [00:00<?, ?it/s][A
Calculating u_opt for patient 154: 100%|██████████| 1/1 [00:05<00:00,  5.67s/it][ACalculating u_opt for patient 154: 100%|██████████| 1/1 [00:05<00:00,  5.67s/it]
Simulating for PatientNr: 154:  90%|████████▉ | 179/200 [21:17<02:43,  7.78s/it]
Calculating u_opt for patient 154:   0%|          | 0/1 [00:00<?, ?it/s][A
Calculating u_opt for patient 154: 100%|██████████| 1/1 [00:06<00:00,  6.85s/it][ACalculating u_opt for patient 154: 100%|██████████| 1/1 [00:06<00:00,  6.85s/it]
Simulating for PatientNr: 154:  90%|█████████ | 180/200 [21:24<02:30,  7.54s/it]
Calculating u_opt for patient 154:   0%|          | 0/1 [00:00<?, ?it/s][A
Calculating u_opt for patient 154: 100%|██████████| 1/1 [00:07<00:00,  7.23s/it][ACalculating u_opt for patient 154: 100%|██████████| 1/1 [00:07<00:00,  7.23s/it]
Simulating for PatientNr: 154:  90%|█████████ | 181/200 [21:32<02:22,  7.49s/it]
Calculating u_opt for patient 154:   0%|          | 0/1 [00:00<?, ?it/s][A
Calculating u_opt for patient 154: 100%|██████████| 1/1 [00:05<00:00,  5.90s/it][ACalculating u_opt for patient 154: 100%|██████████| 1/1 [00:05<00:00,  5.90s/it]
Simulating for PatientNr: 154:  91%|█████████ | 182/200 [21:38<02:06,  7.05s/it]
Calculating u_opt for patient 154:   0%|          | 0/1 [00:00<?, ?it/s][A
Calculating u_opt for patient 154: 100%|██████████| 1/1 [00:06<00:00,  6.30s/it][ACalculating u_opt for patient 154: 100%|██████████| 1/1 [00:06<00:00,  6.30s/it]
Simulating for PatientNr: 154:  92%|█████████▏| 183/200 [21:44<01:56,  6.87s/it]
Calculating u_opt for patient 154:   0%|          | 0/1 [00:00<?, ?it/s][A
Calculating u_opt for patient 154: 100%|██████████| 1/1 [00:07<00:00,  7.74s/it][ACalculating u_opt for patient 154: 100%|██████████| 1/1 [00:07<00:00,  7.74s/it]
Simulating for PatientNr: 154:  92%|█████████▏| 184/200 [21:52<01:54,  7.17s/it]
Calculating u_opt for patient 154:   0%|          | 0/1 [00:00<?, ?it/s][A
Calculating u_opt for patient 154: 100%|██████████| 1/1 [00:06<00:00,  6.96s/it][ACalculating u_opt for patient 154: 100%|██████████| 1/1 [00:06<00:00,  6.96s/it]
Simulating for PatientNr: 154:  92%|█████████▎| 185/200 [21:59<01:47,  7.15s/it]
Calculating u_opt for patient 154:   0%|          | 0/1 [00:00<?, ?it/s][A
Calculating u_opt for patient 154: 100%|██████████| 1/1 [00:06<00:00,  6.20s/it][ACalculating u_opt for patient 154: 100%|██████████| 1/1 [00:06<00:00,  6.20s/it]
Simulating for PatientNr: 154:  93%|█████████▎| 186/200 [22:05<01:36,  6.90s/it]
Calculating u_opt for patient 154:   0%|          | 0/1 [00:00<?, ?it/s][A
Calculating u_opt for patient 154: 100%|██████████| 1/1 [00:03<00:00,  3.53s/it][ACalculating u_opt for patient 154: 100%|██████████| 1/1 [00:03<00:00,  3.53s/it]
Simulating for PatientNr: 154:  94%|█████████▎| 187/200 [22:09<01:17,  5.93s/it]
Calculating u_opt for patient 154:   0%|          | 0/1 [00:00<?, ?it/s][A
Calculating u_opt for patient 154: 100%|██████████| 1/1 [00:04<00:00,  4.82s/it][ACalculating u_opt for patient 154: 100%|██████████| 1/1 [00:04<00:00,  4.82s/it]
Simulating for PatientNr: 154:  94%|█████████▍| 188/200 [22:14<01:07,  5.64s/it]
Calculating u_opt for patient 154:   0%|          | 0/1 [00:00<?, ?it/s][A
Calculating u_opt for patient 154: 100%|██████████| 1/1 [00:06<00:00,  6.71s/it][ACalculating u_opt for patient 154: 100%|██████████| 1/1 [00:06<00:00,  6.71s/it]
Simulating for PatientNr: 154:  94%|█████████▍| 189/200 [22:21<01:06,  6.00s/it]
Calculating u_opt for patient 154:   0%|          | 0/1 [00:00<?, ?it/s][A
Calculating u_opt for patient 154: 100%|██████████| 1/1 [00:13<00:00, 13.58s/it][ACalculating u_opt for patient 154: 100%|██████████| 1/1 [00:13<00:00, 13.58s/it]
Simulating for PatientNr: 154:  95%|█████████▌| 190/200 [22:35<01:23,  8.32s/it]
Calculating u_opt for patient 154:   0%|          | 0/1 [00:00<?, ?it/s][A
Calculating u_opt for patient 154: 100%|██████████| 1/1 [00:06<00:00,  6.79s/it][ACalculating u_opt for patient 154: 100%|██████████| 1/1 [00:06<00:00,  6.79s/it]
Simulating for PatientNr: 154:  96%|█████████▌| 191/200 [22:41<01:11,  7.90s/it]
Calculating u_opt for patient 154:   0%|          | 0/1 [00:00<?, ?it/s][A
Calculating u_opt for patient 154: 100%|██████████| 1/1 [00:10<00:00, 10.76s/it][ACalculating u_opt for patient 154: 100%|██████████| 1/1 [00:10<00:00, 10.76s/it]
Simulating for PatientNr: 154:  96%|█████████▌| 192/200 [22:52<01:10,  8.80s/it]
Calculating u_opt for patient 154:   0%|          | 0/1 [00:00<?, ?it/s][A
Calculating u_opt for patient 154: 100%|██████████| 1/1 [00:06<00:00,  6.57s/it][ACalculating u_opt for patient 154: 100%|██████████| 1/1 [00:06<00:00,  6.57s/it]
Simulating for PatientNr: 154:  96%|█████████▋| 193/200 [22:59<00:57,  8.17s/it]
Calculating u_opt for patient 154:   0%|          | 0/1 [00:00<?, ?it/s][A
Calculating u_opt for patient 154: 100%|██████████| 1/1 [00:05<00:00,  5.85s/it][ACalculating u_opt for patient 154: 100%|██████████| 1/1 [00:05<00:00,  5.85s/it]
Simulating for PatientNr: 154:  97%|█████████▋| 194/200 [23:05<00:45,  7.52s/it]
Calculating u_opt for patient 154:   0%|          | 0/1 [00:00<?, ?it/s][A
Calculating u_opt for patient 154: 100%|██████████| 1/1 [00:13<00:00, 13.14s/it][ACalculating u_opt for patient 154: 100%|██████████| 1/1 [00:13<00:00, 13.14s/it]
Simulating for PatientNr: 154:  98%|█████████▊| 195/200 [23:18<00:46,  9.25s/it]
Calculating u_opt for patient 154:   0%|          | 0/1 [00:00<?, ?it/s][A
Calculating u_opt for patient 154: 100%|██████████| 1/1 [00:06<00:00,  6.36s/it][ACalculating u_opt for patient 154: 100%|██████████| 1/1 [00:06<00:00,  6.36s/it]
Simulating for PatientNr: 154:  98%|█████████▊| 196/200 [23:25<00:33,  8.42s/it]
Calculating u_opt for patient 154:   0%|          | 0/1 [00:00<?, ?it/s][A
Calculating u_opt for patient 154: 100%|██████████| 1/1 [00:05<00:00,  5.44s/it][ACalculating u_opt for patient 154: 100%|██████████| 1/1 [00:05<00:00,  5.44s/it]
Simulating for PatientNr: 154:  98%|█████████▊| 197/200 [23:30<00:22,  7.57s/it]
Calculating u_opt for patient 154:   0%|          | 0/1 [00:00<?, ?it/s][A
Calculating u_opt for patient 154: 100%|██████████| 1/1 [00:11<00:00, 11.40s/it][ACalculating u_opt for patient 154: 100%|██████████| 1/1 [00:11<00:00, 11.40s/it]
Simulating for PatientNr: 154:  99%|█████████▉| 198/200 [23:42<00:17,  8.76s/it]
Calculating u_opt for patient 154:   0%|          | 0/1 [00:00<?, ?it/s][A
Calculating u_opt for patient 154: 100%|██████████| 1/1 [00:05<00:00,  5.41s/it][ACalculating u_opt for patient 154: 100%|██████████| 1/1 [00:05<00:00,  5.41s/it]
Simulating for PatientNr: 154: 100%|█████████▉| 199/200 [23:47<00:07,  7.79s/it]
Calculating u_opt for patient 154:   0%|          | 0/1 [00:00<?, ?it/s][A
Calculating u_opt for patient 154: 100%|██████████| 1/1 [00:04<00:00,  4.89s/it][ACalculating u_opt for patient 154: 100%|██████████| 1/1 [00:04<00:00,  4.89s/it]
Simulating for PatientNr: 154: 100%|██████████| 200/200 [23:52<00:00,  6.96s/it]Simulating for PatientNr: 154: 100%|██████████| 200/200 [23:52<00:00,  7.16s/it]
Traceback (most recent call last):
  File "run_num_3D.py", line 64, in <module>
    simulation.simulate(simulation.simulate_meals, bolus_fun = bolus_fun_num_opt)
  File "/work3/s164180/Master-thesis/main/simulations/DiabetesModels.py", line 138, in simulate
    self.save_and_update()
  File "/work3/s164180/Master-thesis/main/simulations/DiabetesModels.py", line 184, in save_and_update
    self.patientNr = update_lastPatient(self.path, self.maxPatient)
  File "/work3/s164180/Master-thesis/main/simulations/utils.py", line 63, in update_lastPatient
    patientNr = read_lastPatient(path) + 1
  File "/work3/s164180/Master-thesis/main/simulations/utils.py", line 71, in read_lastPatient
    return int(lastPatient)
ValueError: invalid literal for int() with base 10: ''
